This is BibTeX, Version 0.99dThe top-level auxiliary file: main.aux
The style file: unsrt.bst
I found no \citation commands---while reading file main.aux
Database file #1: biblio.bib
(There was 1 error message)
