\BOOKMARK [0][-]{chapter*.4}{Streszczenie}{}% 1
\BOOKMARK [0][-]{chapter*.5}{Wstep}{}% 2
\BOOKMARK [0][-]{chapter.1}{Historia Petanque}{}% 3
\BOOKMARK [0][-]{chapter.2}{Zasady gry Petanque}{}% 4
\BOOKMARK [0][-]{chapter.3}{Opis aplikacji}{}% 5
\BOOKMARK [1][-]{section.3.1}{Rejestracja uzytkownika}{chapter.3}% 6
\BOOKMARK [1][-]{section.3.2}{Struktura pracy}{chapter.3}% 7
\BOOKMARK [2][-]{subsection.3.2.1}{Przyk\233adowa subsection}{section.3.2}% 8
\BOOKMARK [1][-]{section.3.3}{Og\363lne zalecenia pisarskie}{chapter.3}% 9
\BOOKMARK [1][-]{section.3.4}{Czeste b\233edy gramatyczne}{chapter.3}% 10
\BOOKMARK [1][-]{section.3.5}{Korekta}{chapter.3}% 11
\BOOKMARK [0][-]{chapter.4}{Uzyte technologie w aplikacji}{}% 12
\BOOKMARK [0][-]{chapter*.8}{Podsumowanie}{}% 13
\BOOKMARK [0][-]{Item.53}{Bibliografia}{}% 14
